[
    {
        "id": "/INSPIRE-61494ff5-6fad-11e8-b649-52540023a883_20200305-081602/services/1/PullResults/251-300/services/5_ID_b322e227-1d0b-43ca-a833-119730eaa0c6",
        "online_resources": [
            {
                "url": "https://vogis.cnv.at/inspire-download/fwp_signatur_epsg_3035_uuid_9edf5a33-712e-48b0-9b65-6e71c651c1a1_atom.xml",
                "protocol": null,
                "functions": "information",
                "name": "Downloaddienst Fl\u00e4chenwidmungsplan Vorarlberg - Signatur",
                "description": "Downloaddienst Fl\u00e4chenwidmungsplan Vorarlberg - Signatur als atom-feed"
            }
        ]
    },
    {
        "id": "/INSPIRE-61494ff5-6fad-11e8-b649-52540023a883_20200305-081602/services/1/PullResults/251-300/services/6_ID_46ace9ea-e4bb-414e-ba82-b1811e48be8d",
        "online_resources": [
            {
                "url": "https://vogis.cnv.at/inspire-download/fwp_linie_epsg_3035_uuid_d4020769-b3ab-4a20-93cb-c9d0dd3de5a8_atom.xml",
                "protocol": null,
                "functions": "download",
                "name": "Downloaddienst Fl\u00e4chenwidmungsplan Vorarlberg - Linien",
                "description": "Downloaddienst Fl\u00e4chenwidmungsplan Vorarlberg - Linien als atom-feed"
            }
        ]
    },
    {
        "id": "/INSPIRE-61494ff5-6fad-11e8-b649-52540023a883_20200305-081602/services/1/PullResults/251-300/services/8_ID_ac9471fc-73b5-47b1-9a8f-28e239949720",
        "online_resources": [
            {
                "url": "https://vogis.cnv.at/inspire-download/landschaftsschutzgebiete_epsg_3035_uuid_78affb80-5f05-4232-853c-afafc44eccf1_atom.xml",
                "protocol": null,
                "functions": null,
                "name": null,
                "description": null
            }
        ]
    },
    {
        "id": "/INSPIRE-61494ff5-6fad-11e8-b649-52540023a883_20200305-081602/services/1/PullResults/251-300/services/9_ID_e3aa544d-2b88-405d-9151-5abc53f539d8",
        "online_resources": [
            {
                "url": "http://vogis.cnv.at/inspire-download/waldregion_epsg_3035_uuid_265c94d8-2099-475d-af1e-f94a623ede3b_atom.xml",
                "protocol": null,
                "functions": null,
                "name": null,
                "description": null
            }
        ]
    },
    {
        "id": "/INSPIRE-61494ff5-6fad-11e8-b649-52540023a883_20200305-081602/services/1/PullResults/251-300/services/11_ID_1c513524-f650-4a0f-be3a-81b3bc7066b4",
        "online_resources": [
            {
                "url": "https://vogis.cnv.at/inspire-download/grundwasserfelder_epsg_3035_uuid_e2a6303a-a66c-4ec8-8eca-eae50de442d5_atom.xml",
                "protocol": null,
                "functions": null,
                "name": null,
                "description": null
            }
        ]
    },
    {
        "id": "/INSPIRE-61494ff5-6fad-11e8-b649-52540023a883_20200305-081602/services/1/PullResults/251-300/services/13_ID_eaa35015-376c-489b-9fcf-c1ebd9a87a61",
        "online_resources": [
            {
                "url": "https://vogis.cnv.at/inspire-download/alpen_vorsaess_maisaess_epsg_3035_uuid_81be102a-f5bb-4e36-95e7-84afa238df71_atom.xml",
                "protocol": null,
                "functions": null,
                "name": null,
                "description": null
            }
        ]
    },
    {
        "id": "/INSPIRE-61494ff5-6fad-11e8-b649-52540023a883_20200305-081602/services/1/PullResults/251-300/services/18_ID_c5d9d933-4d96-4a48-8b16-288adbc38b5d",
        "online_resources": [
            {
                "url": "https://vogis.cnv.at/inspire-download/schulen_vorarlberg_epsg_3035_uuid_14ba43bb-57a2-42f8-957d-04409d0cfe54_atom.xml",
                "protocol": null,
                "functions": null,
                "name": null,
                "description": null
            }
        ]
    },
    {
        "id": "/INSPIRE-61494ff5-6fad-11e8-b649-52540023a883_20200305-081602/services/1/PullResults/251-300/services/19_ID_372dd677-f74f-4b82-87e9-8e37dc30145c",
        "online_resources": [
            {
                "url": "https://vogis.cnv.at/inspire-download/biotope_epsg_3035_uuid_b71983fb-3e5e-411f-a8cb-8b5c3aec1722_atom.xml",
                "protocol": null,
                "functions": null,
                "name": null,
                "description": null
            }
        ]
    },
    {
        "id": "/INSPIRE-61494ff5-6fad-11e8-b649-52540023a883_20200305-081602/services/1/PullResults/251-300/services/20_ID_d7eb992c-e3ef-4349-94d2-dc91fb921297",
        "online_resources": [
            {
                "url": "https://vogis.cnv.at/inspire-download/pflanzenschutzgebiet_epsg_3035_uuid_3c45b4fe-fbf3-4f72-ab9a-a5f1a512557c_atom.xml",
                "protocol": null,
                "functions": null,
                "name": null,
                "description": null
            }
        ]
    },
    {
        "id": "/INSPIRE-61494ff5-6fad-11e8-b649-52540023a883_20200305-081602/services/1/PullResults/251-300/services/23_ID_9d0bebb9-e488-433f-9fe5-097eef8bea87",
        "online_resources": [
            {
                "url": "https://vogis.cnv.at/inspire-download/saatgut_epsg_3035_uuid_807bb1c4-921b-4915-8a90-0133a464e11b_atom.xml",
                "protocol": null,
                "functions": null,
                "name": null,
                "description": null
            }
        ]
    },
    {
        "id": "/INSPIRE-61494ff5-6fad-11e8-b649-52540023a883_20200305-081602/services/1/PullResults/251-300/services/25_ID_f8f6740b-dab8-4cd8-8eb9-7274e8f4bfbd",
        "online_resources": [
            {
                "url": "https://vogis.cnv.at/inspire-download/auwald_epsg_3035_uuid_5451c809-bf5b-4783-bb9f-c7defd89bd22_atom.xml",
                "protocol": null,
                "functions": null,
                "name": null,
                "description": null
            }
        ]
    },
    {
        "id": "/INSPIRE-61494ff5-6fad-11e8-b649-52540023a883_20200305-081602/services/1/PullResults/251-300/services/26_ID_9370b63f-223e-4cf2-b7d3-b17d4f2de653",
        "online_resources": [
            {
                "url": "http://vogis.cnv.at/inspire-download/fwp_flaeche_epsg_3035_uuid_85bd045b-8857-4388-bc07-0fccd5a29eb1_atom.xml",
                "protocol": null,
                "functions": null,
                "name": null,
                "description": null
            }
        ]
    },
    {
        "id": "/INSPIRE-61494ff5-6fad-11e8-b649-52540023a883_20200305-081602/services/1/PullResults/251-300/services/27_ID_30e3c126-ab7f-42c9-89d8-add8de4b8f01",
        "online_resources": [
            {
                "url": "http://vogis.cnv.at/inspire-download/seen_epsg_3035_uuid_636ce9d4-cd81-4cfc-858a-2c415e68fd09_atom.xml",
                "protocol": null,
                "functions": null,
                "name": null,
                "description": null
            }
        ]
    },
    {
        "id": "/INSPIRE-61494ff5-6fad-11e8-b649-52540023a883_20200305-081602/services/1/PullResults/251-300/services/32_ID_999a6e58-645d-4424-a542-0f23061f68f9",
        "online_resources": [
            {
                "url": "https://vogis.cnv.at/inspire-download/geschuetzter_landschaftsteil_epsg_3035_uuid_0fb9f0b1-6f5b-403a-bbf3-4d785b26c7f8_atom.xml",
                "protocol": null,
                "functions": null,
                "name": null,
                "description": null
            }
        ]
    },
    {
        "id": "/INSPIRE-61494ff5-6fad-11e8-b649-52540023a883_20200305-081602/services/1/PullResults/251-300/services/33_ID_be65734f-5458-40f1-98f5-adc76115e0ad",
        "online_resources": [
            {
                "url": "https://vogis.cnv.at/inspire-download/naturschutzgebiet_epsg_3035_uuid_450fe971-d769-4b3c-9f41-edf262d492cb_atom.xml",
                "protocol": null,
                "functions": null,
                "name": null,
                "description": null
            }
        ]
    },
    {
        "id": "/INSPIRE-61494ff5-6fad-11e8-b649-52540023a883_20200305-081602/services/1/PullResults/251-300/services/34_ID_3a3296ee-5bf1-4579-be4d-b486fba0c4bc",
        "online_resources": [
            {
                "url": "https://vogis.cnv.at/inspire-download/reviere_epsg_3035_uuid_bd2fc8fd-18fc-4610-9ddd-be0c5b9e6253_atom.xml",
                "protocol": null,
                "functions": null,
                "name": null,
                "description": null
            }
        ]
    },
    {
        "id": "/INSPIRE-61494ff5-6fad-11e8-b649-52540023a883_20200305-081602/services/1/PullResults/251-300/services/41_ID_7b9efa32-2f80-4c6a-b105-10c08c2f727c",
        "online_resources": [
            {
                "url": "http://vogis.cnv.at/inspire-download/ufergehoelz_epsg_3035_uuid_8996fa91-c6c9-47f6-9dae-dfd0d83f4280_atom.xml",
                "protocol": null,
                "functions": null,
                "name": null,
                "description": null
            }
        ]
    },
    {
        "id": "/INSPIRE-61494ff5-6fad-11e8-b649-52540023a883_20200305-081602/services/1/PullResults/251-300/services/42_ID_2e305254-756c-4dca-bd90-99e6ce05291c",
        "online_resources": [
            {
                "url": "https://vogis.cnv.at/inspire-download/natura_2000_epsg_3035_uuid_d18f358a-26fe-4144-8feb-7f805485f90a_atom.xml",
                "protocol": "WWW:LINK-1.0-http--link",
                "functions": "download",
                "name": null,
                "description": null
            }
        ]
    },
    {
        "id": "/INSPIRE-61494ff5-6fad-11e8-b649-52540023a883_20200305-081602/services/1/PullResults/251-300/services/45_ID_34e5b37b-a267-4a7b-8b8a-778ec8ddfd31",
        "online_resources": [
            {
                "url": "https://vogis.cnv.at/inspire-download/fischereireviere_epsg_3035_uuid_1cd76e32-977e-4f0a-827c-ba0fa0e333f0_atom.xml",
                "protocol": null,
                "functions": null,
                "name": null,
                "description": null
            }
        ]
    },
    {
        "id": "/INSPIRE-61494ff5-6fad-11e8-b649-52540023a883_20200305-081602/services/1/PullResults/351-400/services/5_ID_88C215C2-2317-4180-A8F6-EF6A69E537DF",
        "online_resources": [
            {
                "url": "https://gis.stmk.gv.at/inspire/downloadservice/DownloadServiceFeedINSPIRE.xml",
                "protocol": null,
                "functions": null,
                "name": null,
                "description": null
            }
        ]
    },
    {
        "id": "/INSPIRE-61494ff5-6fad-11e8-b649-52540023a883_20200305-081602/services/1/PullResults/351-400/services/7_ID_e826154c-b143-4584-8df1-6d6274526e8a",
        "online_resources": [
            {
                "url": "http://ole.e-netze.at/inspire/e/DownloadServiceFeed.xml",
                "protocol": null,
                "functions": null,
                "name": null,
                "description": null
            }
        ]
    },
    {
        "id": "/INSPIRE-61494ff5-6fad-11e8-b649-52540023a883_20200305-081602/services/1/PullResults/351-400/services/17_ID_f602dd88-b9bf-4b88-9e64-9b502328da8e",
        "online_resources": [
            {
                "url": "https://vogis.cnv.at/inspire-download/messstellen_epsg_3035_uuid_52eaf19b-991d-4bc4-9d83-e0abbc1abfad_atom.xml",
                "protocol": null,
                "functions": null,
                "name": null,
                "description": null
            }
        ]
    },
    {
        "id": "/INSPIRE-61494ff5-6fad-11e8-b649-52540023a883_20200305-081602/services/1/PullResults/351-400/services/42_ID_afc3273a-d49f-4f22-a412-cba4f8babf58",
        "online_resources": [
            {
                "url": "http://vogis.cnv.at/inspire-download/hq300_gesamt_epsg_3035_uuid_edce43c0-c942-4b36-b924-78dfc58e6931_atom.xml",
                "protocol": null,
                "functions": "download",
                "name": "Downloaddienst \u00dcberflutungsfl\u00e4chen Vorarlberg in Bearbeitung (HQ300)",
                "description": "Downloaddienst \u00dcberflutungsfl\u00e4chen Vorarlberg in Bearbeitung (HQ300) als atom-feed"
            }
        ]
    },
    {
        "id": "/INSPIRE-61494ff5-6fad-11e8-b649-52540023a883_20200305-081602/services/1/PullResults/351-400/services/43_ID_ec401ebb-2a4f-4e38-9d08-b3e9b0eef879",
        "online_resources": [
            {
                "url": "https://vogis.cnv.at/inspire-download/klaeranlagen_epsg_3035_uuid_a0b5eb3a-a75a-4227-a52d-e0239a9790ca_atom.xml",
                "protocol": null,
                "functions": null,
                "name": null,
                "description": null
            }
        ]
    },
    {
        "id": "/INSPIRE-61494ff5-6fad-11e8-b649-52540023a883_20200305-081602/services/1/PullResults/351-400/services/44_ID_1ab30446-4ab8-4125-8868-bf11deab8c07",
        "online_resources": [
            {
                "url": "http://vogis.cnv.at/inspire-download/schutzundschongebiete_epsg_3035_uuid_a20d7de7-4e96-4f37-8e4c-91d64f50f72a_atom.xml",
                "protocol": null,
                "functions": "download",
                "name": "Downloaddienst Schutz- und Schongebiete Vorarlberg",
                "description": "Downloaddienst Schutz- und Schongebiete Vorarlberg als atom-feed"
            }
        ]
    },
    {
        "id": "/INSPIRE-61494ff5-6fad-11e8-b649-52540023a883_20200305-081602/services/1/PullResults/351-400/services/48_ID_1a82a850-a5f0-43d4-8b87-e61c7162fca3",
        "online_resources": [
            {
                "url": "http://vogis.cnv.at/inspire-download/hq100_gesamt_epsg_3035_uuid_34d68c99-77ee-4702-81cd-37437dedf65d_atom.xml",
                "protocol": null,
                "functions": "download",
                "name": "Downloaddienst \u00dcberflutungsfl\u00e4chen Vorarlberg in Bearbeitung (HQ100)",
                "description": "Downloaddienst \u00dcberflutungsfl\u00e4chen Vorarlberg in Bearbeitung (HQ100) als atom-feed"
            }
        ]
    },
    {
        "id": "/INSPIRE-61494ff5-6fad-11e8-b649-52540023a883_20200305-081602/services/1/PullResults/401-450/services/1_ID_cf5065e9-405a-48f4-a769-bfc8f3e13edc",
        "online_resources": [
            {
                "url": "http://vogis.cnv.at/inspire-download/hq30_gesamt_epsg_3035_uuid_0533859d-4542-4f64-b189-dc3c35bff151_atom.xml",
                "protocol": null,
                "functions": "download",
                "name": "Downloaddienst \u00dcberflutungsfl\u00e4chen Vorarlberg in Bearbeitung (HQ30)",
                "description": "Downloaddienst \u00dcberflutungsfl\u00e4chen Vorarlberg in Bearbeitung (HQ30) als atom-feed"
            }
        ]
    },
    {
        "id": "/INSPIRE-61494ff5-6fad-11e8-b649-52540023a883_20200305-081602/services/1/PullResults/401-450/services/15_ID_901849e0-c050-4c6b-b14e-0b9cccb8946c",
        "online_resources": [
            {
                "url": "http://www.bev.gv.at/bev.webservice/inspire?service=WFS&request=GetCapabilities",
                "protocol": "OGC:WFS-http-get-capabilities",
                "functions": null,
                "name": null,
                "description": null
            },
            {
                "url": "http://www.bev.gv.at/portal/page?_pageid=713,2607252&_dad=portal&_schema=PORTAL",
                "protocol": "WWW:LINK-1.0-http--link",
                "functions": null,
                "name": "Information zum BEV WFS Downloaddienst",
                "description": null
            },
            {
                "url": "http://www.bev.gv.at/portal/page?_pageid=713,2607269&_dad=portal&_schema=PORTAL&wb48617274=CF0AC46D",
                "protocol": "WWW:LINK-1.0-http--link",
                "functions": null,
                "name": "Produktbeispiele und Testdaten des BEV WFS Downloaddienst",
                "description": null
            }
        ]
    },
    {
        "id": "/INSPIRE-61494ff5-6fad-11e8-b649-52540023a883_20200305-081602/services/1/PullResults/401-450/services/40_ID_38AE5D01-7782-4D7E-B337-AA8B1DCD05CC",
        "online_resources": [
            {
                "url": "https://www.salzburg.gv.at/sagisdaten_download/inspire/metadaten/SAGISDownloadDienstMetadataAtom.xml",
                "protocol": null,
                "functions": null,
                "name": null,
                "description": null
            }
        ]
    },
    {
        "id": "/INSPIRE-61494ff5-6fad-11e8-b649-52540023a883_20200305-081602/services/1/PullResults/301-350/services/1_ID_c6e01fe0-f1a8-4983-bd37-d0df72c62584",
        "online_resources": [
            {
                "url": "https://vogis.cnv.at/inspire-download/einsatzgebiet_epsg_3035_uuid_85515322-1ba0-4238-97aa-d7e2b0e50fcb_atom.xml",
                "protocol": null,
                "functions": null,
                "name": null,
                "description": null
            }
        ]
    },
    {
        "id": "/INSPIRE-61494ff5-6fad-11e8-b649-52540023a883_20200305-081602/services/1/PullResults/301-350/services/2_ID_392E5415-8A88-45F8-AF5D-C02BCF692C3F",
        "online_resources": [
            {
                "url": "http://gis.tirol.gv.at/inspire/downloadservice/DownloadServiceFeed.xml",
                "protocol": null,
                "functions": null,
                "name": null,
                "description": null
            }
        ]
    },
    {
        "id": "/INSPIRE-61494ff5-6fad-11e8-b649-52540023a883_20200305-081602/services/1/PullResults/301-350/services/4_ID_68cb9fac-e9ca-4366-b41f-79195fd31360",
        "online_resources": [
            {
                "url": "http://www.bev.gv.at/pls/portal/docs/PAGE/BEV_PORTAL_CONTENT_ALLGEMEIN/0200_PRODUKTE/UNENTGELTLICHE_PRODUKTE_DES_BEV/GN-Geonamen_AT_INSPIRE.zip",
                "protocol": "WWW:LINK-1.0-http--link",
                "functions": "download",
                "name": "Geographische Namen Stichtag",
                "description": "Geographische Namen Stichtag"
            },
            {
                "url": "http://sd.bev.gv.at/geonetwork/srv/eng/csw?service=CSW&request=GetRecordById&version=2.0.2&outputSchema=http%3A%2F%2Fwww.isotc211.org%2F2005%2Fgmd&ElementSetName=full&id=68cb9fac-e9ca-4366-b41f-79195fd31360",
                "protocol": "OGC:CSW",
                "functions": "information",
                "name": "ATOM.AT.BEV.GN",
                "description": "Metadaten ATOM.AT.BEV.GN"
            },
            {
                "url": "http://sd.bev.gv.at/geonetwork/srv/ger/atom.predefined.service?uuid=68cb9fac-e9ca-4366-b41f-79195fd31360",
                "protocol": "WWW:LINK-1.0-http--rss",
                "functions": "information",
                "name": "ATOM.AT.BEV.GN",
                "description": "Verwaltungseinheiten Downloaddienst ATOM.AT.BEV.GN"
            }
        ]
    },
    {
        "id": "/INSPIRE-61494ff5-6fad-11e8-b649-52540023a883_20200305-081602/services/1/PullResults/301-350/services/6_ID_7b789bbe-e3a3-43be-9894-03738465f68f",
        "online_resources": [
            {
                "url": "http://sd.bev.gv.at/geonetwork/srv/eng/csw?service=CSW&request=GetRecordById&version=2.0.2&outputSchema=http%3A%2F%2Fwww.isotc211.org%2F2005%2Fgmd&ElementSetName=full&id=402ad595-d5c1-44bf-bfc4-ffd4f5b8a65f",
                "protocol": "OGC:CSW",
                "functions": null,
                "name": null,
                "description": null
            },
            {
                "url": "http://www.bev.gv.at/pls/portal/docs/PAGE/BEV_PORTAL_CONTENT_ALLGEMEIN/0200_PRODUKTE/UNENTGELTLICHE_PRODUKTE_DES_BEV/Adresse_Relationale_Tabellen-Stichtagsdaten.zip",
                "protocol": "WWW:DOWNLOAD-1.0-http--download",
                "functions": "download",
                "name": null,
                "description": null
            },
            {
                "url": "http://sd.bev.gv.at/geonetwork/srv/ger/atom.predefined.service?uuid=7b789bbe-e3a3-43be-9894-03738465f68f",
                "protocol": "WWW:LINK-1.0-http--rss",
                "functions": "information",
                "name": "ATOM.AT.BEV.AD",
                "description": "Adressen Stichtag ATOM.AT.BEV.AD"
            }
        ]
    },
    {
        "id": "/INSPIRE-61494ff5-6fad-11e8-b649-52540023a883_20200305-081602/services/1/PullResults/301-350/services/7_ID_73f1f687-07fe-4e05-a987-0d61a09ac214",
        "online_resources": [
            {
                "url": "http://www.bev.gv.at/pls/portal/docs/PAGE/BEV_PORTAL_CONTENT_ALLGEMEIN/0200_PRODUKTE/UNENTGELTLICHE_PRODUKTE_DES_BEV/AT_INSPIRE_AU_AB_GPKG.zip",
                "protocol": "WWW:LINK-1.0-http--link",
                "functions": "download",
                "name": "Verwaltungseinheiten Stichtag",
                "description": null
            },
            {
                "url": "http://sd.bev.gv.at/geonetwork/srv/eng/csw?service=CSW&request=GetRecordById&version=2.0.2&outputSchema=http%3A%2F%2Fwww.isotc211.org%2F2005%2Fgmd&ElementSetName=full&id=73f1f687-07fe-4e05-a987-0d61a09ac214",
                "protocol": "OGC:CSW",
                "functions": null,
                "name": null,
                "description": null
            },
            {
                "url": "http://sd.bev.gv.at/geonetwork/srv/ger/atom.predefined.service?uuid=73f1f687-07fe-4e05-a987-0d61a09ac214",
                "protocol": "WWW:LINK-1.0-http--rss",
                "functions": "information",
                "name": "ATOM.AT.BEV.AU",
                "description": "Verwaltungseinheiten Downloaddienst ATOM.AT.BEV.AU"
            }
        ]
    },
    {
        "id": "/INSPIRE-61494ff5-6fad-11e8-b649-52540023a883_20200305-081602/services/1/PullResults/301-350/services/9_ID_d311358e-816d-46cb-b828-b9b730d0f730",
        "online_resources": [
            {
                "url": "https://vogis.cnv.at/inspire-download/oertliches_schutzgebiet_epsg_3035_uuid_029b14e4-80ec-49e0-8c1f-6c44baaceb52_atom.xml",
                "protocol": null,
                "functions": null,
                "name": null,
                "description": null
            }
        ]
    },
    {
        "id": "/INSPIRE-61494ff5-6fad-11e8-b649-52540023a883_20200305-081602/services/1/PullResults/301-350/services/11_ID_d33fda9a-3983-4b3d-b361-3f4e8ced450a",
        "online_resources": [
            {
                "url": "https://vogis.cnv.at/inspire-download/inspire_protected_sites_epsg_3035_uuid_07394eac-f53f-413c-ab0e-5a09cca5d3cc_atom.xml",
                "protocol": "WWW:LINK-1.0-http--link",
                "functions": "download",
                "name": null,
                "description": null
            }
        ]
    },
    {
        "id": "/INSPIRE-61494ff5-6fad-11e8-b649-52540023a883_20200305-081602/services/1/PullResults/301-350/services/18_ID_bf933700-a307-4f88-9d5a-6c0678fec3c8",
        "online_resources": [
            {
                "url": "http://www.bev.gv.at/pls/portal/docs/PAGE/BEV_PORTAL_CONTENT_ALLGEMEIN/0200_PRODUKTE/UNENTGELTLICHE_PRODUKTE_DES_BEV/INS-GGS_Blattschnitte_BEV_V1.0.gpkg",
                "protocol": "WWW:DOWNLOAD-1.0-http--download",
                "functions": "download",
                "name": "Blattschnitte BEV AT - Geographische Gittersysteme GGS",
                "description": "Blattschnitte BEV AT - Geographische Gittersysteme GGS"
            },
            {
                "url": "http://sd.bev.gv.at/geonetwork/srv/eng/csw?service=CSW&request=GetRecordById&version=2.0.2&outputSchema=http%3A%2F%2Fwww.isotc211.org%2F2005%2Fgmd&ElementSetName=full&id=bf933700-a307-4f88-9d5a-6c0678fec3c8",
                "protocol": "OGC:CSW",
                "functions": "information",
                "name": "ATOM.AT.BEV.GGS",
                "description": "Metadaten ATOM.AT.BEV.GGS"
            },
            {
                "url": "http://sd.bev.gv.at/geonetwork/srv/ger/atom.predefined.service?uuid=bf933700-a307-4f88-9d5a-6c0678fec3c8",
                "protocol": "WWW:LINK-1.0-http--rss",
                "functions": "information",
                "name": "ATOM.AT.BEV.GGS",
                "description": "Blattschnitte BEV AT Downloaddienst ATOM.AT.BEV.GGS"
            }
        ]
    },
    {
        "id": "/INSPIRE-61494ff5-6fad-11e8-b649-52540023a883_20200305-081602/services/1/PullResults/301-350/services/21_ID_e3b46bd0-f964-4754-ab73-e5a53c654cb7",
        "online_resources": [
            {
                "url": "http://www.bev.gv.at/pls/portal/docs/PAGE/BEV_PORTAL_CONTENT_ALLGEMEIN/0200_PRODUKTE/UNENTGELTLICHE_PRODUKTE_DES_BEV/KM250-V.zip",
                "protocol": "WWW:LINK-1.0-http--link",
                "functions": "download",
                "name": "Kartographisches Modell 1:250000 Vektor",
                "description": "Kartographisches Modell 1:250000 Vektor"
            },
            {
                "url": "http://sd.bev.gv.at/geonetwork/srv/eng/csw?service=CSW&request=GetRecordById&version=2.0.2&outputSchema=http%3A%2F%2Fwww.isotc211.org%2F2005%2Fgmd&ElementSetName=full&id=e3b46bd0-f964-4754-ab73-e5a53c654cb7",
                "protocol": "OGC:CSW",
                "functions": "information",
                "name": "ATOM.AT.BEV.Carto",
                "description": "Metadaten ATOM.AT.BEV Kartographische Modelle"
            },
            {
                "url": "http://sd.bev.gv.at/geonetwork/srv/ger/atom.predefined.service?uuid=e3b46bd0-f964-4754-ab73-e5a53c654cb7",
                "protocol": "WWW:LINK-1.0-http--rss",
                "functions": "information",
                "name": "ATOM.AT.BEV.Carto",
                "description": "Verwaltungseinheiten Downloaddienst ATOM.AT.BEV Kartographisches Modell"
            }
        ]
    },
    {
        "id": "/INSPIRE-61494ff5-6fad-11e8-b649-52540023a883_20200305-081602/services/1/PullResults/551-600/services/5_ID_901e4074-9b2d-4382-a6ae-40a93165d110",
        "online_resources": [
            {
                "url": "http://geometadatensuche.inspire.gv.at/metadatensuche/srv/ger/atom.predefined.service?uuid=901e4074-9b2d-4382-a6ae-40a93165d110",
                "protocol": "WWW:LINK-1.0-http--rss",
                "functions": "information",
                "name": "Downloaddienst Austrian Power Grid AG - Hochspannungsnetz 2014",
                "description": null
            }
        ]
    },
    {
        "id": "/INSPIRE-61494ff5-6fad-11e8-b649-52540023a883_20200305-081602/services/1/PullResults/551-600/services/13_ID_89dc43a5-407c-4f49-b9b6-63f2085f6376",
        "online_resources": [
            {
                "url": "http://geometadatensuche.inspire.gv.at/metadatensuche/srv/ger/atom.predefined.service?uuid=89dc43a5-407c-4f49-b9b6-63f2085f6376",
                "protocol": "WWW:LINK-1.0-http--rss",
                "functions": "information",
                "name": "Downloadservice VERBUND Hydro Power GmbH und Ennskraftwerke AG - Kraftwerksstandorte",
                "description": null
            }
        ]
    },
    {
        "id": "/INSPIRE-61494ff5-6fad-11e8-b649-52540023a883_20200305-081602/services/1/PullResults/551-600/services/16_ID_6fa89c28-23be-4b53-ac6d-6eae736ede7e",
        "online_resources": [
            {
                "url": "http://geometadatensuche.inspire.gv.at/metadatensuche/srv/ger/atom.predefined.service?uuid=6fa89c28-23be-4b53-ac6d-6eae736ede7e",
                "protocol": "WWW:LINK-1.0-http--rss",
                "functions": "information",
                "name": "L\u00e4rmzonen Umgebungsl\u00e4rmkartierung \u00d6sterreich",
                "description": null
            }
        ]
    },
    {
        "id": "/INSPIRE-61494ff5-6fad-11e8-b649-52540023a883_20200305-081602/services/1/PullResults/551-600/services/42_ID_9ae5bbdb-98c7-4ea9-8b9b-4af2c54d9f14",
        "online_resources": [
            {
                "url": "http://geometadatensuche.inspire.gv.at/metadatensuche/srv/ger/atom.predefined.service?uuid=9ae5bbdb-98c7-4ea9-8b9b-4af2c54d9f14",
                "protocol": "WWW:LINK-1.0-http--rss",
                "functions": "information",
                "name": "Downloaddienst - Hochspannungsnetz der Vorarlberger Energienetze GmbH",
                "description": null
            }
        ]
    },
    {
        "id": "/INSPIRE-61494ff5-6fad-11e8-b649-52540023a883_20200305-081602/services/1/PullResults/551-600/services/46_ID_b04525b0-ff45-4445-940a-ab48e43ada1c",
        "online_resources": [
            {
                "url": "http://geometadatensuche.inspire.gv.at/metadatensuche/srv/ger/atom.predefined.service?uuid=b04525b0-ff45-4445-940a-ab48e43ada1c",
                "protocol": "WWW:LINK-1.0-http--rss",
                "functions": "information",
                "name": "Downloadservice Agricultural Soil Map of Austria",
                "description": null
            }
        ]
    },
    {
        "id": "/INSPIRE-61494ff5-6fad-11e8-b649-52540023a883_20200305-081602/services/1/PullResults/601-650/services/3_ID_87cf1a2f-02a3-4c25-96a3-bafdde2a1b5a",
        "online_resources": [
            {
                "url": "http://geometadatensuche.inspire.gv.at/metadatensuche/srv/ger/atom.predefined.service?uuid=87cf1a2f-02a3-4c25-96a3-bafdde2a1b5a",
                "protocol": "WWW:LINK-1.0-http--rss",
                "functions": "information",
                "name": "Downloaddienst - Hochspannungsnetz der Vorarlberger Illwerke AG",
                "description": null
            }
        ]
    },
    {
        "id": "/INSPIRE-61494ff5-6fad-11e8-b649-52540023a883_20200305-081602/services/1/PullResults/601-650/services/9_ID_4b3d8a60-20a2-4cc8-a343-2ac31bf6ce50",
        "online_resources": [
            {
                "url": "http://geometadatensuche.inspire.gv.at/metadatensuche/srv/ger/atom.predefined.service?uuid=4b3d8a60-20a2-4cc8-a343-2ac31bf6ce50",
                "protocol": "WWW:LINK-1.0-http--rss",
                "functions": "download",
                "name": "Downloaddienst Wasser \u00d6sterreich",
                "description": null
            }
        ]
    },
    {
        "id": "/INSPIRE-61494ff5-6fad-11e8-b649-52540023a883_20200305-081602/services/1/PullResults/601-650/services/10_ID_4d0aa349-9832-4954-bc48-cf19bb889e51",
        "online_resources": [
            {
                "url": "http://geometadatensuche.inspire.gv.at/metadatensuche/srv/ger/atom.predefined.service?uuid=4d0aa349-9832-4954-bc48-cf19bb889e51",
                "protocol": "WWW:LINK-1.0-http--rss",
                "functions": "information",
                "name": "Salzburg AG Fernw\u00e4rme Downloaddienst",
                "description": null
            }
        ]
    },
    {
        "id": "/INSPIRE-61494ff5-6fad-11e8-b649-52540023a883_20200305-081602/services/1/PullResults/601-650/services/16_ID_28229a91-aedf-40ff-b768-592e954a2c41",
        "online_resources": [
            {
                "url": "http://geometadatensuche.inspire.gv.at/metadatensuche/srv/ger/atom.predefined.service?uuid=28229a91-aedf-40ff-b768-592e954a2c41",
                "protocol": "WWW:LINK-1.0-http--rss",
                "functions": "information",
                "name": "Downloaddienst - Umspannwerke der Vorarlberger Energienetze GmbH",
                "description": null
            }
        ]
    },
    {
        "id": "/INSPIRE-61494ff5-6fad-11e8-b649-52540023a883_20200305-081602/services/1/PullResults/601-650/services/19_ID_86939ec1-0481-41ff-8abf-6c14995c9997",
        "online_resources": [
            {
                "url": "http://geometadatensuche.inspire.gv.at/metadatensuche/srv/ger/atom.predefined.service?uuid=86939ec1-0481-41ff-8abf-6c14995c9997",
                "protocol": "WWW:LINK-1.0-http--rss",
                "functions": "information",
                "name": "Downloadservice f\u00fcr BergIS",
                "description": null
            }
        ]
    },
    {
        "id": "/INSPIRE-61494ff5-6fad-11e8-b649-52540023a883_20200305-081602/services/1/PullResults/601-650/services/22_ID_23a3445f-a3f0-4ef9-a059-cd4ac0f42781",
        "online_resources": [
            {
                "url": "http://geometadatensuche.inspire.gv.at/metadatensuche/srv/ger/atom.predefined.service?uuid=23a3445f-a3f0-4ef9-a059-cd4ac0f42781",
                "protocol": "WWW:LINK-1.0-http--rss",
                "functions": "information",
                "name": "Downloaddienst: Benachteiligte landwirtschaftliche Gebiete in \u00d6sterreich",
                "description": null
            }
        ]
    },
    {
        "id": "/INSPIRE-61494ff5-6fad-11e8-b649-52540023a883_20200305-081602/services/1/PullResults/601-650/services/29_ID_bbe9ae43-e4e6-465a-ae26-04bebf214ff0",
        "online_resources": [
            {
                "url": "http://geometadatensuche.inspire.gv.at/metadatensuche/srv/ger/atom.predefined.service?uuid=bbe9ae43-e4e6-465a-ae26-04bebf214ff0",
                "protocol": "WWW:LINK-1.0-http--rss",
                "functions": "information",
                "name": "Downloadservice BIOSOIL",
                "description": null
            }
        ]
    },
    {
        "id": "/INSPIRE-61494ff5-6fad-11e8-b649-52540023a883_20200305-081602/services/1/PullResults/601-650/services/31_ID_a3a8bfdc-7ee6-40f1-9a47-2a556249d080",
        "online_resources": [
            {
                "url": "http://geometadatensuche.inspire.gv.at/metadatensuche/srv/ger/atom.predefined.service?uuid=a3a8bfdc-7ee6-40f1-9a47-2a556249d080",
                "protocol": "WWW:LINK-1.0-http--rss",
                "functions": "information",
                "name": "Inspire Downloadservice des Umweltbundesamt - EDM",
                "description": null
            }
        ]
    },
    {
        "id": "/INSPIRE-61494ff5-6fad-11e8-b649-52540023a883_20200305-081602/services/1/PullResults/601-650/services/32_ID_ab5bc2de-ec2d-400c-abd7-d326d6a97b0c",
        "online_resources": [
            {
                "url": "http://geometadatensuche.inspire.gv.at/metadatensuche/srv/ger/atom.predefined.service?uuid=ab5bc2de-ec2d-400c-abd7-d326d6a97b0c",
                "protocol": "WWW:LINK-1.0-http--rss",
                "functions": "information",
                "name": "Downloaddienst Netz Nieder\u00f6sterreich Hochspannungsnetz",
                "description": null
            },
            {
                "url": "https://inspire.lfrz.gv.at/006701/wms?version=1.3.0&request=GetCapabilities",
                "protocol": null,
                "functions": null,
                "name": null,
                "description": null
            }
        ]
    },
    {
        "id": "/INSPIRE-61494ff5-6fad-11e8-b649-52540023a883_20200305-081602/services/1/PullResults/601-650/services/35_ID_b56128bb-8986-4d8a-87d6-0944052ff5e5",
        "online_resources": [
            {
                "url": "http://geometadatensuche.inspire.gv.at/metadatensuche/srv/ger/atom.predefined.service?uuid=b56128bb-8986-4d8a-87d6-0944052ff5e5",
                "protocol": "WWW:LINK-1.0-http--rss",
                "functions": "information",
                "name": "INSPIRE Downloaddienst ASFINAG",
                "description": null
            }
        ]
    },
    {
        "id": "/INSPIRE-61494ff5-6fad-11e8-b649-52540023a883_20200305-081602/services/1/PullResults/601-650/services/39_ID_7e41d4fd-0098-4a01-861f-d1d5a9e61b49",
        "online_resources": [
            {
                "url": "http://geometadatensuche.inspire.gv.at/metadatensuche/srv/ger/atom.predefined.service?uuid=7e41d4fd-0098-4a01-861f-d1d5a9e61b49",
                "protocol": "WWW:LINK-1.0-http--rss",
                "functions": "information",
                "name": "Downloadservice landwirtschaftliche Produktionsgebiete",
                "description": null
            }
        ]
    },
    {
        "id": "/INSPIRE-61494ff5-6fad-11e8-b649-52540023a883_20200305-081602/services/1/PullResults/601-650/services/41_ID_3cb36eb4-fb1c-4213-8cbd-9a0853aa230d",
        "online_resources": [
            {
                "url": "http://geometadatensuche.inspire.gv.at/metadatensuche/srv/ger/atom.predefined.service?uuid=3cb36eb4-fb1c-4213-8cbd-9a0853aa230d",
                "protocol": "WWW:LINK-1.0-http--rss",
                "functions": "information",
                "name": "Downloadservice Almregionen",
                "description": null
            }
        ]
    },
    {
        "id": "/INSPIRE-61494ff5-6fad-11e8-b649-52540023a883_20200305-081602/services/1/PullResults/601-650/services/50_ID_2ddbad45-4624-4ada-9e34-5cdddc98a8d9",
        "online_resources": [
            {
                "url": "http://geometadatensuche.inspire.gv.at/metadatensuche/srv/ger/atom.predefined.service?uuid=2ddbad45-4624-4ada-9e34-5cdddc98a8d9",
                "protocol": "WWW:LINK-1.0-http--rss",
                "functions": "information",
                "name": "Downloaddienst_Inspire_OEBB",
                "description": null
            }
        ]
    },
    {
        "id": "/INSPIRE-61494ff5-6fad-11e8-b649-52540023a883_20200305-081602/services/1/PullResults/151-200/services/10_ID_6e8aa92c-0de4-4610-ab72-1efb440276e5",
        "online_resources": [
            {
                "url": "https://stp.wien.gv.at/agsinspire/rest/services/inspireh/MapServer/exts/InspireFeatureDownload/service?VERSION=2.0.0&SERVICE=WFS&REQUEST=GetCapabilities",
                "protocol": null,
                "functions": null,
                "name": null,
                "description": null
            }
        ]
    },
    {
        "id": "/INSPIRE-61494ff5-6fad-11e8-b649-52540023a883_20200305-081602/services/1/PullResults/151-200/services/11_ID_10cd18e7-12f1-4a0b-807b-3b6bc4474881",
        "online_resources": [
            {
                "url": "https://data.wien.gv.at/daten/geo?service=WFS&version=1.1.0&request=GetCapabilities",
                "protocol": null,
                "functions": null,
                "name": null,
                "description": null
            }
        ]
    },
    {
        "id": "/INSPIRE-61494ff5-6fad-11e8-b649-52540023a883_20200305-081602/services/1/PullResults/151-200/services/12_ID_77679c24-302c-11e3-beb4-0000c1ab0db6",
        "online_resources": [
            {
                "url": "https://www.statistik.at/gs-inspire/www/inspire2/download/download-service.xml",
                "protocol": null,
                "functions": null,
                "name": null,
                "description": null
            }
        ]
    },
    {
        "id": "/INSPIRE-61494ff5-6fad-11e8-b649-52540023a883_20200305-081602/services/1/PullResults/101-150/services/22_ID_2242c584-081e-437a-8492-00254aa17702",
        "online_resources": [
            {
                "url": "http://ole.e-netze.at/inspire/kng/DownloadServiceFeed_KNG.xml",
                "protocol": null,
                "functions": null,
                "name": null,
                "description": null
            }
        ]
    },
    {
        "id": "/INSPIRE-61494ff5-6fad-11e8-b649-52540023a883_20200305-081602/services/1/PullResults/101-150/services/35_ID_9c00f140-a51a-11e3-be40-425861b86ab6",
        "online_resources": [
            {
                "url": "https://stp.wien.gv.at/agsinspire/rest/services/inspirewfs/MapServer/exts/InspireFeatureDownload/service?VERSION=2.0.0&SERVICE=WFS&REQUEST=GetCapabilities",
                "protocol": null,
                "functions": null,
                "name": null,
                "description": null
            }
        ]
    },
    {
        "id": "/INSPIRE-61494ff5-6fad-11e8-b649-52540023a883_20200305-081602/services/1/PullResults/201-250/services/15_ID_7A0BD4AE-4EE5-455F-A9B4-3CA3FF153541",
        "online_resources": [
            {
                "url": "https://inspire.bgld.gv.at/inspire/downloadservice_atom_servicefeed.xml",
                "protocol": null,
                "functions": "download",
                "name": null,
                "description": null
            }
        ]
    },
    {
        "id": "/INSPIRE-61494ff5-6fad-11e8-b649-52540023a883_20200305-081602/services/1/PullResults/201-250/services/36_ID_8F44C49C-3CF5-4B7C-9006-959B7E0D1F4F",
        "online_resources": [
            {
                "url": "https://inspire.viadonau.org/gis/rest/services/INSPIRE/WaterTransport/MapServer/exts/InspireFeatureDownload/service?request=GetCapabilities&Version=2.0&SERVICE=WFS",
                "protocol": null,
                "functions": "download",
                "name": null,
                "description": null
            }
        ]
    },
    {
        "id": "/INSPIRE-61494ff5-6fad-11e8-b649-52540023a883_20200305-081602/services/1/PullResults/201-250/services/50_ID_f84b5640-a5bb-4fd1-85a1-ce424ce92a35",
        "online_resources": [
            {
                "url": "http://vogis.cnv.at/inspire-download/waldkarte_epsg_3035_uuid_7d4579eb-027e-40e1-8f22-c23072a0ed7e_atom.xml",
                "protocol": null,
                "functions": null,
                "name": null,
                "description": null
            }
        ]
    },
    {
        "id": "/INSPIRE-61494ff5-6fad-11e8-b649-52540023a883_20200305-081602/services/1/PullResults/51-100/services/40_ID_a0f3a4e1-52ed-46c9-b64c-eae6d2ab9783",
        "online_resources": [
            {
                "url": "http://gis.ktn.gv.at/OGD/INSPIRE/downloadservice_atom_servicefeed.xml",
                "protocol": "WWW:LINK-1.0-http--rss",
                "functions": null,
                "name": "INSPIRE Download Service",
                "description": null
            }
        ]
    },
    {
        "id": "/INSPIRE-61494ff5-6fad-11e8-b649-52540023a883_20200305-081602/services/1/PullResults/51-100/services/44_ID_600C042E-3A38-41A8-80E9-B7A76E027549",
        "online_resources": [
            {
                "url": "http://doris.ooe.gv.at/service/metadaten/DownloadDienstMetadataAtom.xml",
                "protocol": null,
                "functions": null,
                "name": null,
                "description": null
            }
        ]
    },
    {
        "id": "/INSPIRE-61494ff5-6fad-11e8-b649-52540023a883_20200305-081602/services/1/PullResults/451-500/services/34_ID_9174e9f5-60cb-4517-bb2a-bc4eca32b486",
        "online_resources": [
            {
                "url": "http://wmsx.zamg.ac.at/inspire_dls/download_service.xml",
                "protocol": null,
                "functions": null,
                "name": null,
                "description": null
            }
        ]
    },
    {
        "id": "/INSPIRE-61494ff5-6fad-11e8-b649-52540023a883_20200305-081602/services/1/PullResults/451-500/services/39_ID_6e7197e7-d98a-4deb-bdca-60a1dd358be2",
        "online_resources": [
            {
                "url": "http://geometadatensuche.inspire.gv.at/metadatensuche/srv/ger/atom.predefined.service?uuid=6e7197e7-d98a-4deb-bdca-60a1dd358be2",
                "protocol": "WWW:LINK-1.0-http--rss",
                "functions": "information",
                "name": "INSPIRE Downloaddienst AGES",
                "description": null
            }
        ]
    },
    {
        "id": "/INSPIRE-61494ff5-6fad-11e8-b649-52540023a883_20200305-081602/services/1/PullResults/451-500/services/45_ID_3e44108b-1d31-423e-929f-598f65021f71",
        "online_resources": [
            {
                "url": "http://geometadatensuche.inspire.gv.at/metadatensuche/srv/ger/atom.predefined.service?uuid=3e44108b-1d31-423e-929f-598f65021f71",
                "protocol": "WWW:LINK-1.0-http--rss",
                "functions": "information",
                "name": "Salzburg AG Strom Downloaddienst",
                "description": null
            }
        ]
    },
    {
        "id": "/INSPIRE-61494ff5-6fad-11e8-b649-52540023a883_20200305-081602/services/1/PullResults/451-500/services/48_ID_bea12cac-1c68-4e07-9a40-d0e765185a27",
        "online_resources": [
            {
                "url": "http://geometadatensuche.inspire.gv.at/metadatensuche/srv/ger/atom.predefined.service?uuid=bea12cac-1c68-4e07-9a40-d0e765185a27",
                "protocol": "WWW:LINK-1.0-http--rss",
                "functions": "information",
                "name": "Downloaddienst Hydrographisches Messstellennetz",
                "description": null
            }
        ]
    },
    {
        "id": "/INSPIRE-61494ff5-6fad-11e8-b649-52540023a883_20200305-081602/services/1/PullResults/451-500/services/49_ID_D3AAC068-0E09-4786-80C0-58602F9BA9F4",
        "online_resources": [
            {
                "url": "https://gis.geologie.ac.at/inspire/download/DownloadServiceFeed.xml",
                "protocol": null,
                "functions": null,
                "name": null,
                "description": null
            }
        ]
    },
    {
        "id": "/INSPIRE-61494ff5-6fad-11e8-b649-52540023a883_20200305-081602/services/1/PullResults/501-550/services/4_ID_f5a7a9ff-6b6a-4734-83af-4902009e7020",
        "online_resources": [
            {
                "url": "http://geometadatensuche.inspire.gv.at/metadatensuche/srv/ger/atom.predefined.service?uuid=f5a7a9ff-6b6a-4734-83af-4902009e7020",
                "protocol": "WWW:LINK-1.0-http--rss",
                "functions": "information",
                "name": "INSPIRE Downloaddienst Umweltbundesamt Naturschutz",
                "description": "INSPIRE Downloaddienst Umweltbundesamt Naturschutz"
            }
        ]
    },
    {
        "id": "/INSPIRE-61494ff5-6fad-11e8-b649-52540023a883_20200305-081602/services/1/PullResults/501-550/services/9_ID_225d80a2-2603-4312-b43e-a2f00ea97223",
        "online_resources": [
            {
                "url": "http://geometadatensuche.inspire.gv.at/metadatensuche/srv/ger/atom.predefined.service?uuid=225d80a2-2603-4312-b43e-a2f00ea97223",
                "protocol": "WWW:LINK-1.0-http--rss",
                "functions": "information",
                "name": "INSPIRE Downloaddienst BORIS - Bodeninformationssystem \u00d6sterreich",
                "description": null
            }
        ]
    },
    {
        "id": "/INSPIRE-61494ff5-6fad-11e8-b649-52540023a883_20200305-081602/services/1/PullResults/501-550/services/17_ID_007ba2d2-5719-4ae3-827f-fb82a09ce4cb",
        "online_resources": [
            {
                "url": "http://geometadatensuche.inspire.gv.at/metadatensuche/srv/ger/atom.predefined.service?uuid=007ba2d2-5719-4ae3-827f-fb82a09ce4cb",
                "protocol": "WWW:LINK-1.0-http--rss",
                "functions": "information",
                "name": "Salzburg AG Gas Downloaddienst",
                "description": null
            }
        ]
    },
    {
        "id": "/INSPIRE-61494ff5-6fad-11e8-b649-52540023a883_20200305-081602/services/1/PullResults/501-550/services/20_ID_d82a9b9b-fd11-4822-8d98-49cc262f5a58",
        "online_resources": [
            {
                "url": "http://geometadatensuche.inspire.gv.at/metadatensuche/srv/ger/atom.predefined.service?uuid=d82a9b9b-fd11-4822-8d98-49cc262f5a58",
                "protocol": "WWW:LINK-1.0-http--rss",
                "functions": "information",
                "name": "Downloaddienst: Hochspannungsnetz der Netz Burgenland GmbH",
                "description": null
            }
        ]
    },
    {
        "id": "/INSPIRE-61494ff5-6fad-11e8-b649-52540023a883_20200305-081602/services/1/PullResults/501-550/services/21_ID_97ee1ed3-14a7-4e6f-b1a4-fc5530cdc76a",
        "online_resources": [
            {
                "url": "http://geometadatensuche.inspire.gv.at/metadatensuche/srv/ger/atom.predefined.service?uuid=97ee1ed3-14a7-4e6f-b1a4-fc5530cdc76a",
                "protocol": "WWW:LINK-1.0-http--rss",
                "functions": "information",
                "name": "Downloaddienst - Umspannwerke der Vorarlberger Illwerke AG",
                "description": null
            }
        ]
    },
    {
        "id": "/INSPIRE-61494ff5-6fad-11e8-b649-52540023a883_20200305-081602/services/1/PullResults/501-550/services/26_ID_bc9e4fc5-79ee-495a-afc2-15b819f4bffb",
        "online_resources": [
            {
                "url": "http://geometadatensuche.inspire.gv.at/metadatensuche/srv/ger/atom.predefined.service?uuid=bc9e4fc5-79ee-495a-afc2-15b819f4bffb",
                "protocol": "WWW:LINK-1.0-http--rss",
                "functions": "information",
                "name": "Downloaddienst WLV \u00d6sterreich",
                "description": null
            }
        ]
    },
    {
        "id": "/INSPIRE-61494ff5-6fad-11e8-b649-52540023a883_20200305-081602/services/1/PullResults/501-550/services/30_ID_9b61b5ac-ff9c-4a1b-b0bd-c4756f960a52",
        "online_resources": [
            {
                "url": "http://geometadatensuche.inspire.gv.at/metadatensuche/srv/ger/atom.predefined.service?uuid=9b61b5ac-ff9c-4a1b-b0bd-c4756f960a52",
                "protocol": "WWW:LINK-1.0-http--rss",
                "functions": "information",
                "name": "INSPIRE Downloaddienst Energie AG",
                "description": null
            }
        ]
    },
    {
        "id": "/INSPIRE-61494ff5-6fad-11e8-b649-52540023a883_20200305-081602/services/1/PullResults/501-550/services/37_ID_cb3e6db1-f9f9-40ea-881b-9811d8880538",
        "online_resources": [
            {
                "url": "http://geometadatensuche.inspire.gv.at/metadatensuche/srv/ger/atom.predefined.service?uuid=cb3e6db1-f9f9-40ea-881b-9811d8880538",
                "protocol": "WWW:LINK-1.0-http--rss",
                "functions": "information",
                "name": "Downloaddienst - Kraftwerke der Vorarlberger Illwerke AG",
                "description": null
            }
        ]
    },
    {
        "id": "/INSPIRE-61494ff5-6fad-11e8-b649-52540023a883_20200305-081602/services/1/PullResults/701-750/services/7_ID_33bd67bf-4915-4ad2-9ba4-3ca5c7bb1bc6",
        "online_resources": [
            {
                "url": "http://geometadatensuche.inspire.gv.at/metadatensuche/srv/ger/atom.predefined.service?uuid=33bd67bf-4915-4ad2-9ba4-3ca5c7bb1bc6",
                "protocol": "WWW:LINK-1.0-http--rss",
                "functions": "information",
                "name": "Downloadservice OEWI Luftbildinterpretation",
                "description": null
            }
        ]
    },
    {
        "id": "/INSPIRE-61494ff5-6fad-11e8-b649-52540023a883_20200305-081602/services/1/PullResults/701-750/services/8_ID_2ab43aee-ff6c-4c8b-a040-d7d1d2ee8935",
        "online_resources": [
            {
                "url": "https://geogis.ages.at/inspireDS/Badestellen_uuid_d85a15b9-ebf0-4f58-935b-28936a8d9264_atom.xml",
                "protocol": null,
                "functions": null,
                "name": null,
                "description": null
            }
        ]
    },
    {
        "id": "/INSPIRE-61494ff5-6fad-11e8-b649-52540023a883_20200305-081602/services/1/PullResults/701-750/services/11_ID_a0f43649-2c9d-4deb-a46f-e456bef87d3d",
        "online_resources": [
            {
                "url": "http://geometadatensuche.inspire.gv.at/metadatensuche/srv/ger/atom.predefined.service?uuid=a0f43649-2c9d-4deb-a46f-e456bef87d3d",
                "protocol": "WWW:LINK-1.0-http--rss",
                "functions": "information",
                "name": "Downloadservice landwirtschaftliche Lagen",
                "description": null
            }
        ]
    },
    {
        "id": "/INSPIRE-61494ff5-6fad-11e8-b649-52540023a883_20200305-081602/services/1/PullResults/701-750/services/16_ID_711ddc25-741c-41f3-aa56-a6a558bfbc5e",
        "online_resources": [
            {
                "url": "http://geometadatensuche.inspire.gv.at/metadatensuche/srv/ger/atom.predefined.service?uuid=711ddc25-741c-41f3-aa56-a6a558bfbc5e",
                "protocol": "WWW:LINK-1.0-http--rss",
                "functions": "information",
                "name": "Inspire Downloaddienst Umweltbundesamt - Luft",
                "description": null
            }
        ]
    },
    {
        "id": "/INSPIRE-61494ff5-6fad-11e8-b649-52540023a883_20200305-081602/services/1/PullResults/701-750/services/17_ID_0f4abe8c-6c9f-440a-b473-de6bf1b10609",
        "online_resources": [
            {
                "url": "http://luft.umweltbundesamt.at/inspire/sos?service=SOS&version=2.0.0&request=getCapabilities",
                "protocol": "OGC:SOS",
                "functions": null,
                "name": null,
                "description": null
            }
        ]
    },
    {
        "id": "/INSPIRE-61494ff5-6fad-11e8-b649-52540023a883_20200305-081602/services/1/PullResults/701-750/services/29_ID_afa1e707-1ae2-4bc2-b0e3-c6dc132e060f",
        "online_resources": [
            {
                "url": "http://geometadatensuche.inspire.gv.at/metadatensuche/srv/ger/atom.predefined.service?uuid=afa1e707-1ae2-4bc2-b0e3-c6dc132e060f",
                "protocol": "WWW:LINK-1.0-http--rss",
                "functions": "information",
                "name": "Downloadservice Oesterreichischer Waldentwicklungsplan",
                "description": null
            }
        ]
    },
    {
        "id": "/INSPIRE-61494ff5-6fad-11e8-b649-52540023a883_20200305-081602/services/1/PullResults/701-750/services/44_ID_3eeadcb6-5d41-4c04-8b16-43073566fb04",
        "online_resources": [
            {
                "url": "https://sdigeo-free.austrocontrol.at/geoserver/tn-a/wfs?service=WFS&version=2.0.0&request=GetCapabilities",
                "protocol": "OGC:WFS",
                "functions": "information",
                "name": "ACG INSPIRE- TN-A - Download Service - GetCapabilities",
                "description": "Austro Control GmbH INSPIRE - Transport Network Air - Austria - Download Service - GetCapabilities"
            },
            {
                "url": "https://sdigeo-free.austrocontrol.at/geoserver/tn/wfs?service=WFS&version=2.0.0&request=GetCapabilities",
                "protocol": "OGC:WFS",
                "functions": "information",
                "name": "ACG INSPIRE- TN - Download Service - GetCapabilities",
                "description": "Austro Control GmbH INSPIRE - Transport Network - Austria - Download Service - GetCapabilities"
            }
        ]
    },
    {
        "id": "/INSPIRE-61494ff5-6fad-11e8-b649-52540023a883_20200305-081602/services/1/PullResults/701-750/services/49_ID_3df8f1cf-3bf1-499b-b42b-6496a3c5cbd4",
        "online_resources": [
            {
                "url": "https://haleconnect.com/services/bsp/org.670.2ad41177-fc4f-4b58-86f3-25882e8d69d1/service/atom/id_predefined_dataset",
                "protocol": null,
                "functions": "download",
                "name": null,
                "description": null
            }
        ]
    },
    {
        "id": "/INSPIRE-61494ff5-6fad-11e8-b649-52540023a883_20200305-081602/services/1/PullResults/651-700/services/11_ID_2d71e55c-0e46-4e53-b232-c7ebaabcdc7f",
        "online_resources": [
            {
                "url": "https://haleconnect.com/ows/services/org.224.0372b2af-7bad-4b0d-b27a-06ee2b502cc2_wfs?SERVICE=WFS&REQUEST=GetCapabilities&VERSION=2.0.0",
                "protocol": "OGC:WFS",
                "functions": "information",
                "name": "INSPIRE Downloaddienst CORINE 2018 - Test HALE WFS",
                "description": null
            },
            {
                "url": "https://haleconnect.com/services/bsp/org.224.0372b2af-7bad-4b0d-b27a-06ee2b502cc2/service/atom/id_predefined_dataset",
                "protocol": "WWW:LINK-1.0-http--rss",
                "functions": "download",
                "name": null,
                "description": null
            }
        ]
    },
    {
        "id": "/INSPIRE-61494ff5-6fad-11e8-b649-52540023a883_20200305-081602/services/1/PullResults/651-700/services/18_ID_c98ef8d7-8ab9-4c24-b906-c5beaf91ae8a",
        "online_resources": [
            {
                "url": "http://geometadatensuche.inspire.gv.at/metadatensuche/srv/ger/atom.predefined.service?uuid=c98ef8d7-8ab9-4c24-b906-c5beaf91ae8a",
                "protocol": "WWW:LINK-1.0-http--rss",
                "functions": "information",
                "name": "Downloaddienst Umweltbundesamt - Altlasten",
                "description": null
            }
        ]
    },
    {
        "id": "/INSPIRE-61494ff5-6fad-11e8-b649-52540023a883_20200305-081602/services/1/PullResults/651-700/services/23_ID_e993a684-ab3a-4427-8e6b-ed0eea48e1f1",
        "online_resources": [
            {
                "url": "https://gis.bmlrt.gv.at/wmsgw/?key=a64a0c9c9a692ed7041482cb6f03a40a&VERSION=2.0.0&REQUEST=GetCapabilities&SERVICE=WFS",
                "protocol": "OGC:WFS",
                "functions": null,
                "name": null,
                "description": null
            }
        ]
    },
    {
        "id": "/INSPIRE-61494ff5-6fad-11e8-b649-52540023a883_20200305-081602/services/1/PullResults/651-700/services/26_ID_1813e36a-0013-425e-8578-2a012ba5657e",
        "online_resources": [
            {
                "url": "http://geometadatensuche.inspire.gv.at/metadatensuche/srv/ger/atom.predefined.service?uuid=1813e36a-0013-425e-8578-2a012ba5657e",
                "protocol": "WWW:LINK-1.0-http--rss",
                "functions": "information",
                "name": "Downloadservice Forstliche Wuchsgebiete",
                "description": null
            }
        ]
    },
    {
        "id": "/INSPIRE-61494ff5-6fad-11e8-b649-52540023a883_20200305-081602/services/1/PullResults/651-700/services/27_ID_f02ed2b2-6331-472f-9d88-fcebcb5980b6",
        "online_resources": [
            {
                "url": "http://geometadatensuche.inspire.gv.at/metadatensuche/srv/ger/atom.predefined.service?uuid=f02ed2b2-6331-472f-9d88-fcebcb5980b6",
                "protocol": "WWW:LINK-1.0-http--rss",
                "functions": "information",
                "name": "TIWAG Versorgungsnetz Downloaddienst",
                "description": null
            }
        ]
    },
    {
        "id": "/INSPIRE-61494ff5-6fad-11e8-b649-52540023a883_20200305-081602/services/1/PullResults/651-700/services/38_ID_c0901f78-9c34-4a01-b6ed-21bd02017b2d",
        "online_resources": [
            {
                "url": "https://geo.noe.gv.at/inspire-download/download_service_feed.xml",
                "protocol": null,
                "functions": null,
                "name": null,
                "description": null
            }
        ]
    },
    {
        "id": "/INSPIRE-61494ff5-6fad-11e8-b649-52540023a883_20200305-081602/services/1/PullResults/651-700/services/40_ID_a0b22e45-bd68-4aa7-a8ce-50002df1751c",
        "online_resources": [
            {
                "url": "http://geometadatensuche.inspire.gv.at/metadatensuche/srv/ger/atom.predefined.service?uuid=a0b22e45-bd68-4aa7-a8ce-50002df1751c",
                "protocol": "WWW:LINK-1.0-http--rss",
                "functions": "information",
                "name": "Downloaddienst - Gashochdruckleitung der Vorarlberger Energienetze GmbH",
                "description": null
            }
        ]
    },
    {
        "id": "/INSPIRE-61494ff5-6fad-11e8-b649-52540023a883_20200305-081602/services/1/PullResults/651-700/services/42_ID_00eb7e52-4672-413d-a795-9430a3d079aa",
        "online_resources": [
            {
                "url": "http://geometadatensuche.inspire.gv.at/metadatensuche/srv/ger/atom.predefined.service?uuid=00eb7e52-4672-413d-a795-9430a3d079aa",
                "protocol": "WWW:LINK-1.0-http--rss",
                "functions": "information",
                "name": "Downloaddienst - Hochspannungsnetz der Vorarlberger \u00dcbertragungsnetz GmbH",
                "description": null
            }
        ]
    },
    {
        "id": "/INSPIRE-61494ff5-6fad-11e8-b649-52540023a883_20200305-081602/services/1/PullResults/651-700/services/43_ID_bda17d44-e4d8-47bb-bc76-8ed8d1728223",
        "online_resources": [
            {
                "url": "http://geometadatensuche.inspire.gv.at/metadatensuche/srv/ger/atom.predefined.service?uuid=bda17d44-e4d8-47bb-bc76-8ed8d1728223",
                "protocol": "WWW:LINK-1.0-http--rss",
                "functions": "information",
                "name": "Downloaddienst der INVEKOS Referenzfl\u00e4chen, Feldst\u00fccke und Schl\u00e4ge",
                "description": null
            }
        ]
    }
]